{
  "project_info": {
    "project_number": "321071816463",
    "firebase_url": "https://remindapp-21702.firebaseio.com",
    "project_id": "remindapp-21702",
    "storage_bucket": "remindapp-21702.appspot.com"
  },
  "client": [
    {
      "client_info": {
        "mobilesdk_app_id": "1:321071816463:android:388e1c1115d1c47c",
        "android_client_info": {
          "package_name": "com.bConceptStudios.RemindApp"
        }
      },
      "oauth_client": [
        {
          "client_id": "321071816463-87itvn161omo0a9lhurfb5b3ojfflu0v.apps.googleusercontent.com",
          "client_type": 3
        }
      ],
      "api_key": [
        {
          "current_key": "AIzaSyDi-1blDPb6f10ddXTJjC9u0SQrRTnaTT0"
        }
      ],
      "services": {
        "analytics_service": {
          "status": 1
        },
        "appinvite_service": {
          "status": 1,
          "other_platform_oauth_client": []
        },
        "ads_service": {
          "status": 2
        }
      }
    }
  ],
  "configuration_version": "1"
}